Split captions into sentences — pmc_caption • rOpenSci: tidypmc
…
    Examples

# doc <- pmc_xml("PMC2231364") # OR
doc <- xml2::read_xml(system.file("extdata/PMC2231364.xml",
  package = "tidypmc"
))
x <- pmc_caption(doc)

#> Found 5 figures
#> Found 4 tables
#> Found 3 supplements
x

#> # A tibble: 30 x 4
#>    tag    label   sentence text                                                 
#>    <chr>  <chr>      <int> <chr>                                                
#>  1 figure Figure…        1 "Environmental modulation of expression of virulence…
#>  2 figure Figure…        2 "Shown in the squares are the putative stages of tra…
#>  3 figure Figure…        3 "The TreeView charts show the transcriptional change…
#>  4 figure Figure…        4 "Color intensities denote log2 ratios as follows: gr…
#>  5 figure Figure…        1 "RT-PCR analysis of potential operons."              
#>  6 figure Figure…        2 "Shown is the electrophoresis image of an RT-PCR pro…
#>  7 figure Figure…        3 "Total RNA was used to synthesize cDNA in the presen…
#>  8 figure Figure…        4 "Genomic DNA was used as a template, and is indicate…
#>  9 figure Figure…        5 "\"Marker\" represents a DNA size marker (900, 700, …
#> 10 figure Figure…        1 "Schematic representation of the clustered microarra…
#> # … with 20 more rows
…
